tmp/crc/sim/log/crc32_dn_check_1.log
VCD info: dumpfile dump.vcd opened for output.
VCD warning: $dumpvars: Package ($unit) is not dumpable with VCD.
                   0 : 00 0 0 x
                   5 : 00 0 0 0
                  20 : 00 1 0 0
                 130 : 01 1 0 0
                 140 : 91 1 0 0
                 150 : 00 1 0 0
                 160 : a0 1 0 0
                 170 : 7e 1 0 0
                 180 : 81 1 0 0
                 190 : 00 1 0 0
                 200 : db 1 0 0
                 210 : c9 1 0 0
                 220 : 89 1 0 0
                 230 : 2c 1 0 0
                 240 : db 1 0 0
                 250 : dc 1 0 0
                 260 : dd 1 0 0
                 270 : de 1 0 0
                 280 : df 1 0 0
                 290 : e0 1 0 0
                 300 : e1 1 0 0
                 310 : e2 1 0 0
                 320 : e3 1 0 0
                 330 : e4 1 0 0
                 340 : e5 1 0 0
                 350 : e6 1 0 0
                 360 : e7 1 0 0
                 370 : e8 1 0 0
                 380 : e9 1 0 0
                 390 : ea 1 0 0
                 400 : eb 1 0 0
                 410 : ec 1 0 0
                 420 : ed 1 0 0
                 430 : ee 1 0 0
                 440 : ef 1 0 0
                 450 : f0 1 0 0
                 460 : f1 1 0 0
                 470 : f2 1 0 0
                 480 : f3 1 0 0
                 490 : f4 1 0 0
                 500 : f5 1 0 0
                 510 : f6 1 0 0
                 520 : f7 1 0 0
                 530 : f8 1 0 0
                 540 : f9 1 0 0
                 550 : fa 1 0 0
                 560 : fb 1 0 0
                 570 : fc 1 0 0
                 580 : fd 1 0 0
                 590 : fe 1 0 0
                 600 : ff 1 0 0
                 610 : 00 1 0 0
                 620 : 01 1 0 0
                 630 : 02 1 0 0
                 640 : 03 1 0 0
                 650 : 04 1 0 0
                 660 : 05 1 0 0
                 670 : 06 1 0 0
                 680 : 07 1 0 0
                 690 : 08 1 0 0
                 700 : 09 1 0 0
                 710 : 0a 1 0 0
                 720 : 0b 1 0 0
                 730 : 0c 1 0 0
                 740 : 0d 1 0 0
                 750 : 0e 1 0 0
                 760 : 0f 1 0 0
                 770 : 10 1 0 0
                 780 : 11 1 0 0
                 790 : 12 1 0 0
                 800 : 13 1 0 0
                 810 : 14 1 0 0
                 820 : 15 1 0 0
                 830 : 16 1 0 0
                 840 : 17 1 0 0
                 850 : 18 1 0 0
                 860 : 81 1 0 0
                 870 : fa 1 0 0
                 880 : ec 1 0 0
                 890 : 88 1 1 0
                 900 : 88 0 0 0
                 910 : 00 1 0 0
                1020 : 01 1 0 0
                1030 : 91 1 0 0
                1040 : 00 1 0 0
                1050 : a0 1 0 0
                1060 : 7e 1 0 0
                1070 : 81 1 0 0
                1080 : 00 1 0 0
                1090 : db 1 0 0
                1100 : c9 1 0 0
                1110 : 89 1 0 0
                1120 : 2c 1 0 0
                1130 : db 1 0 0
                1140 : dc 1 0 0
                1150 : dd 1 0 0
                1160 : de 1 0 0
                1170 : df 1 0 0
                1180 : e0 1 0 0
                1190 : e1 1 0 0
                1200 : e2 1 0 0
                1210 : e3 1 0 0
                1220 : e4 1 0 0
                1230 : e5 1 0 0
                1240 : e6 1 0 0
                1250 : e7 1 0 0
                1260 : e8 1 0 0
                1270 : e9 1 0 0
                1280 : ea 1 0 0
                1290 : eb 1 0 0
                1300 : ec 1 0 0
                1310 : ed 1 0 0
                1320 : ee 1 0 0
                1330 : ef 1 0 0
                1340 : f0 1 0 0
                1350 : f1 1 0 0
                1360 : f2 1 0 0
                1370 : f3 1 0 0
                1380 : f4 1 0 0
                1390 : f5 1 0 0
                1400 : f6 1 0 0
                1410 : f7 1 0 0
                1420 : f8 1 0 0
                1430 : f9 1 0 0
                1440 : fa 1 0 0
                1450 : fb 1 0 0
                1460 : fc 1 0 0
                1470 : fd 1 0 0
                1480 : fe 1 0 0
                1490 : ff 1 0 0
                1500 : 00 1 0 0
                1510 : 01 1 0 0
                1520 : 02 1 0 0
                1530 : 03 1 0 0
                1540 : 04 1 0 0
                1550 : 05 1 0 0
                1560 : 06 1 0 0
                1570 : 07 1 0 0
                1580 : 08 1 0 0
                1590 : 09 1 0 0
                1600 : 0a 1 0 0
                1610 : 0b 1 0 0
                1620 : 0c 1 0 0
                1630 : 0d 1 0 0
                1640 : 0e 1 0 0
                1650 : 0f 1 0 0
                1660 : 10 1 0 0
                1670 : 11 1 0 0
                1680 : 12 1 0 0
                1690 : 13 1 0 0
                1700 : 14 1 0 0
                1710 : 15 1 0 0
                1720 : 16 1 0 0
                1730 : 17 1 0 0
                1740 : 18 1 0 0
                1750 : 81 1 0 0
                1760 : fa 1 0 0
                1770 : ec 1 0 0
                1780 : 77 1 1 0
                1785 : 77 1 1 1
                1790 : 77 0 0 1
                1795 : 77 0 0 0
                1800 : 00 1 0 0
                1910 : 01 1 0 0
                1920 : 91 1 0 0
                1930 : 00 1 0 0
                1940 : a0 1 0 0
                1950 : 7e 1 0 0
                1960 : 81 1 0 0
                1970 : 00 1 0 0
                1980 : db 1 0 0
                1990 : c9 1 0 0
                2000 : 89 1 0 0
                2010 : 2c 1 0 0
                2020 : db 1 0 0
                2030 : dc 1 0 0
                2040 : dd 1 0 0
                2050 : de 1 0 0
                2060 : df 1 0 0
                2070 : e0 1 0 0
                2080 : e1 1 0 0
                2090 : e2 1 0 0
                2100 : e3 1 0 0
                2110 : e4 1 0 0
                2120 : e5 1 0 0
                2130 : e6 1 0 0
                2140 : e7 1 0 0
                2150 : e8 1 0 0
                2160 : e9 1 0 0
                2170 : ea 1 0 0
                2180 : eb 1 0 0
                2190 : ec 1 0 0
                2200 : ed 1 0 0
                2210 : ee 1 0 0
                2220 : ef 1 0 0
                2230 : f0 1 0 0
                2240 : f1 1 0 0
                2250 : f2 1 0 0
                2260 : f3 1 0 0
                2270 : f4 1 0 0
                2280 : f5 1 0 0
                2290 : f6 1 0 0
                2300 : f7 1 0 0
                2310 : f8 1 0 0
                2320 : f9 1 0 0
                2330 : fa 1 0 0
                2340 : fb 1 0 0
                2350 : fc 1 0 0
                2360 : fd 1 0 0
                2370 : fe 1 0 0
                2380 : ff 1 0 0
                2390 : 00 1 0 0
                2400 : 01 1 0 0
                2410 : 02 1 0 0
                2420 : 03 1 0 0
                2430 : 04 1 0 0
                2440 : 05 1 0 0
                2450 : 06 1 0 0
                2460 : 07 1 0 0
                2470 : 08 1 0 0
                2480 : 09 1 0 0
                2490 : 0a 1 0 0
                2500 : 0b 1 0 0
                2510 : 0c 1 0 0
                2520 : 0d 1 0 0
                2530 : 0e 1 0 0
                2540 : 0f 1 0 0
                2550 : 10 1 0 0
                2560 : 11 1 0 0
                2570 : 12 1 0 0
                2580 : 13 1 0 0
                2590 : 14 1 0 0
                2600 : 15 1 0 0
                2610 : 16 1 0 0
                2620 : 17 1 0 0
                2630 : 18 1 0 0
                2640 : 81 1 0 0
                2650 : fa 1 0 0
                2660 : ec 1 0 0
                2670 : 88 1 1 0
                2680 : 88 0 0 0
                2690 : 00 1 0 0
                2800 : 04 1 0 0
                2810 : 91 1 0 0
                2820 : 00 1 0 0
                2830 : fa 1 0 0
                2840 : fc 1 0 0
                2850 : 81 1 0 0
                2860 : 00 1 0 0
                2870 : 91 1 0 0
                2880 : 38 1 0 0
                2890 : 38 1 0 0
                2900 : f5 1 0 0
                2910 : 12 1 0 0
                2920 : 13 1 0 0
                2930 : 14 1 0 0
                2940 : 15 1 0 0
                2950 : 16 1 0 0
                2960 : 17 1 0 0
                2970 : 18 1 0 0
                2980 : 19 1 0 0
                2990 : 1a 1 0 0
                3000 : 1b 1 0 0
                3010 : 1c 1 0 0
                3020 : 1d 1 0 0
                3030 : 1e 1 0 0
                3040 : 1f 1 0 0
                3050 : 20 1 0 0
                3060 : 21 1 0 0
                3070 : 22 1 0 0
                3080 : 23 1 0 0
                3090 : 24 1 0 0
                3100 : 25 1 0 0
                3110 : 26 1 0 0
                3120 : 27 1 0 0
                3130 : 28 1 0 0
                3140 : 29 1 0 0
                3150 : 2a 1 0 0
                3160 : 2b 1 0 0
                3170 : 2c 1 0 0
                3180 : 2d 1 0 0
                3190 : 2e 1 0 0
                3200 : 2f 1 0 0
                3210 : 30 1 0 0
                3220 : 31 1 0 0
                3230 : 32 1 0 0
                3240 : 33 1 0 0
                3250 : 34 1 0 0
                3260 : 35 1 0 0
                3270 : 36 1 0 0
                3280 : 37 1 0 0
                3290 : 38 1 0 0
                3300 : 39 1 0 0
                3310 : 3a 1 0 0
                3320 : 3b 1 0 0
                3330 : 3c 1 0 0
                3340 : 3d 1 0 0
                3350 : 3e 1 0 0
                3360 : 3f 1 0 0
                3370 : 40 1 0 0
                3380 : 41 1 0 0
                3390 : 42 1 0 0
                3400 : 43 1 0 0
                3410 : 44 1 0 0
                3420 : 45 1 0 0
                3430 : 46 1 0 0
                3440 : 47 1 0 0
                3450 : 48 1 0 0
                3460 : 49 1 0 0
                3470 : 4a 1 0 0
                3480 : 9e 1 0 0
                3490 : 38 1 0 0
                3500 : c9 1 0 0
                3510 : f4 1 1 0
                3520 : f4 0 0 0
./tb/LDL_crc32_dn_check_tb.sv:76: $finish called at 3540 (1ns)
