custom/cdc/sim/log/cdc_hand_v1.log
VCD info: dumpfile dump.vcd opened for output.
VCD warning: $dumpvars: Package ($unit) is not dumpable with VCD.
                   0 :   0   x
                  10 :   0   0
                 200 :   1   0
                 210 :   2   0
                 220 :   3   0
                 230 :   4   0
                 240 :   5   0
                 250 :   6   0
                 260 :   7   0
                 270 :   8   0
                 280 :   9   0
                 290 :  10   0
                 300 :  11   0
                 310 :  12   7
                 320 :  13   7
                 330 :  14   7
                 340 :  15   7
                 350 :  16   7
                 360 :  17   7
                 370 :  18   7
                 380 :  19   7
                 390 :  20  14
                 400 :  21  14
                 410 :  22  14
                 420 :  23  14
                 430 :  24  14
                 440 :  25  14
                 450 :  26  21
                 460 :  27  21
                 470 :  28  21
                 480 :  29  21
                 490 :  30  21
                 500 :  31  21
                 510 :  32  21
                 520 :  33  21
                 530 :  34  28
                 540 :  35  28
                 550 :  36  28
                 560 :  37  28
                 570 :  38  28
                 580 :  39  28
                 590 :  40  35
                 600 :  41  35
                 610 :  42  35
                 620 :  43  35
                 630 :  44  35
                 640 :  45  35
                 650 :  46  35
                 660 :  47  35
                 670 :  48  42
                 680 :  49  42
                 690 :  50  42
                 730 :  50  49
                 810 :  50  50
                 870 :  50  50
./tb/LDL_cdc_hand_v1_tb.sv:39: $finish called at 890 (1ns)
