custom/cdc/sim/log/cdc_ring_v1_1.log
VCD info: dumpfile dump.vcd opened for output.
VCD warning: $dumpvars: Package ($unit) is not dumpable with VCD.
                   0 :   0   x
                  50 :   0   0
                 200 :   1   0
                 210 :   2   0
                 220 :   3   0
                 230 :   4   0
                 240 :   5   0
                 250 :   6   0
                 260 :   7   0
                 270 :   8   0
                 280 :   9   0
                 290 :  10   0
                 300 :  11   0
                 310 :  12   0
                 320 :  13   0
                 330 :  14   0
                 340 :  15   0
                 350 :  16   0
                 360 :  17   0
                 370 :  18   0
                 380 :  19   0
                 390 :  20   0
                 400 :  21   0
                 410 :  22   0
                 420 :  23   0
                 430 :  24   0
                 440 :  25   0
                 450 :  26   1
                 460 :  27   1
                 470 :  28   1
                 480 :  29   1
                 490 :  30   1
                 500 :  31   1
                 510 :  32   1
                 520 :  33   1
                 530 :  34   1
                 540 :  35   1
                 550 :  36   1
                 560 :  37   1
                 570 :  38   1
                 580 :  39   1
                 590 :  40   1
                 600 :  41   1
                 610 :  42   1
                 620 :  43   1
                 630 :  44   1
                 640 :  45   1
                 650 :  46   1
                 660 :  47   1
                 670 :  48   1
                 680 :  49   1
                 690 :  50   1
                 700 :  51   1
                 710 :  52   1
                 720 :  53   1
                 730 :  54   1
                 740 :  55   1
                 750 :  56  28
                 760 :  57  28
                 770 :  58  28
                 780 :  59  28
                 790 :  60  28
                 800 :  61  28
                 810 :  62  28
                 820 :  63  28
                 830 :  64  28
                 840 :  65  28
                 850 :  66  28
                 860 :  67  28
                 870 :  68  28
                 880 :  69  28
                 890 :  70  28
                 900 :  71  28
                 910 :  72  28
                 920 :  73  28
                 930 :  74  28
                 940 :  75  28
                 950 :  76  28
                 960 :  77  28
                 970 :  78  28
                 980 :  79  28
                 990 :  80  28
                1000 :  81  28
                1010 :  82  28
                1020 :  83  28
                1030 :  84  28
                1040 :  85  28
                1050 :  86  58
                1060 :  87  58
                1070 :  88  58
                1080 :  89  58
                1090 :  90  58
                1100 :  91  58
                1110 :  92  58
                1120 :  93  58
                1130 :  94  58
                1140 :  95  58
                1150 :  96  58
                1160 :  97  58
                1170 :  98  58
                1180 :  99  58
                1190 : 100  58
                1350 : 100  88
./tb/LDL_cdc_ring_v1_tb.sv:43: $finish called at 1390 (1ns)
