custom/cdc/sim/log/cdc_ring_v1_2.log
VCD info: dumpfile dump.vcd opened for output.
VCD warning: $dumpvars: Package ($unit) is not dumpable with VCD.
                   0 :   0   x
                   5 :   0   0
                 200 :   1   0
                 275 :   1   1
                 300 :   2   1
                 400 :   3   1
                 500 :   4   1
                 575 :   4   4
                 600 :   5   4
                 700 :   6   4
                 800 :   7   4
                 875 :   7   7
                 900 :   8   7
                1000 :   9   7
                1100 :  10   7
                1175 :  10  10
                1200 :  11  10
                1300 :  12  10
                1400 :  13  10
                1475 :  13  13
                1500 :  14  13
                1600 :  15  13
                1700 :  16  13
                1775 :  16  16
                1800 :  17  16
                1900 :  18  16
                2000 :  19  16
                2075 :  19  19
                2100 :  20  19
                2200 :  21  19
                2300 :  22  19
                2375 :  22  22
                2400 :  23  22
                2500 :  24  22
                2600 :  25  22
                2675 :  25  25
                2700 :  26  25
                2800 :  27  25
                2900 :  28  25
                2975 :  28  28
                3000 :  29  28
                3100 :  30  28
                3200 :  31  28
                3275 :  31  31
                3300 :  32  31
                3400 :  33  31
                3500 :  34  31
                3575 :  34  34
                3600 :  35  34
                3700 :  36  34
                3800 :  37  34
                3875 :  37  37
                3900 :  38  37
                4000 :  39  37
                4100 :  40  37
                4175 :  40  40
                4200 :  41  40
                4300 :  42  40
                4400 :  43  40
                4475 :  43  43
                4500 :  44  43
                4600 :  45  43
                4700 :  46  43
                4775 :  46  46
                4800 :  47  46
                4900 :  48  46
                5000 :  49  46
                5075 :  49  49
                5100 :  50  49
                5200 :  51  49
                5300 :  52  49
                5375 :  52  52
                5400 :  53  52
                5500 :  54  52
                5600 :  55  52
                5675 :  55  55
                5700 :  56  55
                5800 :  57  55
                5900 :  58  55
                5975 :  58  58
                6000 :  59  58
                6100 :  60  58
                6200 :  61  58
                6275 :  61  61
                6300 :  62  61
                6400 :  63  61
                6500 :  64  61
                6575 :  64  64
                6600 :  65  64
                6700 :  66  64
                6800 :  67  64
                6875 :  67  67
                6900 :  68  67
                7000 :  69  67
                7100 :  70  67
                7175 :  70  70
                7200 :  71  70
                7300 :  72  70
                7400 :  73  70
                7475 :  73  73
                7500 :  74  73
                7600 :  75  73
                7700 :  76  73
                7775 :  76  76
                7800 :  77  76
                7900 :  78  76
                8000 :  79  76
                8075 :  79  79
                8100 :  80  79
                8200 :  81  79
                8300 :  82  79
                8375 :  82  82
                8400 :  83  82
                8500 :  84  82
                8600 :  85  82
                8675 :  85  85
                8700 :  86  85
                8800 :  87  85
                8900 :  88  85
                8975 :  88  88
                9000 :  89  88
                9100 :  90  88
                9200 :  91  88
                9275 :  91  91
                9300 :  92  91
                9400 :  93  91
                9500 :  94  91
                9575 :  94  94
                9600 :  95  94
                9700 :  96  94
                9800 :  97  94
                9875 :  97  97
                9900 :  98  97
               10000 :  99  97
               10100 : 100  97
               10175 : 100 100
./tb/LDL_cdc_ring_v1_tb.sv:43: $finish called at 10300 (1ns)
