rtl/fifo/sim/log/sfifo_v1_no_ahead.log
Ram@LDL_sfifo_v1_tb.dut.p2ram_rs : LDL_p2ram_rs_v1 :           8 :           16
VCD info: dumpfile dump.vcd opened for output.
VCD warning: $dumpvars: Package ($unit) is not dumpable with VCD.
     time : re  dout empty full count  we
        0 : 0    xx    x    x     x    0
        5 : 0    xx    1    0     0    0
       20 : 0    xx    1    0     0    1
       25 : 0    xx    1    0     1    1
       35 : 0    a0    0    0     2    1
       45 : 0    a0    0    0     3    1
       55 : 0    a0    0    0     4    1
       65 : 0    a0    0    0     5    1
       75 : 0    a0    0    0     6    1
       85 : 0    a0    0    0     7    1
       95 : 0    a0    0    0     8    1
      105 : 0    a0    0    0     9    1
      115 : 0    a0    0    0    10    1
      125 : 0    a0    0    0    11    1
      135 : 0    a0    0    0    12    1
      145 : 0    a0    0    0    13    1
      155 : 0    a0    0    0    14    1
      165 : 0    a0    0    0    15    1
      175 : 0    a0    0    1    16    1
      230 : 1    a0    0    1    16    0
      235 : 1    a0    0    0    15    0
      245 : 1    a1    0    0    14    0
      255 : 1    a2    0    0    13    0
      265 : 1    a3    0    0    12    0
      275 : 1    a4    0    0    11    0
      285 : 1    a5    0    0    10    0
      295 : 1    a6    0    0     9    0
      305 : 1    a7    0    0     8    0
      315 : 1    a8    0    0     7    0
      325 : 1    a9    0    0     6    0
      335 : 1    aa    0    0     5    0
      345 : 1    ab    0    0     4    0
      355 : 1    ac    0    0     3    0
      365 : 1    ad    0    0     2    0
      375 : 1    ae    0    0     1    0
      385 : 1    af    1    0     0    0
      440 : 1    af    1    0     0    1
      445 : 1    af    1    0     1    1
      450 : 1    af    1    0     1    0
      455 : 1    b5    0    0     1    0
      460 : 1    b5    0    0     1    1
      465 : 1    b5    1    0     1    1
      475 : 1    b6    0    0     2    1
      485 : 1    b6    0    0     2    1
      495 : 1    b7    0    0     2    1
      505 : 1    b8    0    0     2    1
      515 : 1    b9    0    0     2    1
      525 : 1    ba    0    0     2    1
      535 : 1    bb    0    0     2    1
      545 : 1    bc    0    0     2    1
      555 : 1    bd    0    0     2    1
      565 : 1    be    0    0     2    1
      570 : 1    be    0    0     2    0
      575 : 1    bf    0    0     1    0
      585 : 1    c0    1    0     0    0
      680 : 1    c0    1    0     0    1
      685 : 1    c0    1    0     1    1
      695 : 1    c1    0    0     2    1
      700 : 1    c1    0    0     2    0
      705 : 1    c1    0    0     1    0
      710 : 1    c1    0    0     1    1
      715 : 1    c2    1    0     1    1
      725 : 1    c3    0    0     2    1
      730 : 1    c3    0    0     2    0
      735 : 1    c3    0    0     1    0
      745 : 1    c4    1    0     0    0
      830 : 0    c4    1    0     0    1
      835 : 0    c4    1    0     1    1
      840 : 0    c4    1    0     1    0
      845 : 0    c5    0    0     1    0
      850 : 1    c5    0    0     1    1
      855 : 1    c5    1    0     1    1
      860 : 0    c5    1    0     1    1
      865 : 0    c6    0    0     2    1
      870 : 1    c6    0    0     2    1
      875 : 1    c6    0    0     2    1
      885 : 1    c7    0    0     2    1
      890 : 1    c7    0    0     2    0
      895 : 1    c8    0    0     1    0
      905 : 1    c9    1    0     0    0
./tb/LDL_sfifo_v1_tb.sv:88: $finish called at 910 (1ns)
